常用押韻字,聲母,韻母,音調,次數
我,ng,o,5,34
人,j,an,4,30
過,gw,o,1,30
去,h,eoi,2,28
意,j,i,3,26
愛,N/A,oi,3,25
有,j,au,5,23
吧,b,aa,1,22
中,z,ung,1,21
你,n,ei,5,20
次,c,i,1,20
時,s,i,4,19
多,d,o,1,19
天,t,in,1,18
開,h,oi,1,17
話,w,aa,6,17
變,b,in,3,16
後,h,au,6,16
嗎,m,aa,1,16
到,d,ou,3,16
對,d,eoi,3,15
夢,m,ung,4,15
知,z,i,1,14
心,s,am,1,14
笑,s,iu,3,14
地,d,ei,6,13
道,d,ou,3,13
望,m,ong,4,13
子,c,i,4,12
誰,s,eoi,4,11
逝,s,ai,6,11
要,j,iu,1,11
上,s,oeng,5,11
年,n,in,4,11
真,z,an,1,11
改,g,oi,2,10
空,h,ung,1,10
好,h,ou,2,10
前,c,in,4,10
口,h,au,2,10
風,f,ung,1,10
事,s,i,6,9
的,d,ik,1,9
能,n,ang,4,9
起,h,ei,2,9
楚,c,o,2,9
近,g,an,6,9
手,s,au,2,9
在,z,oi,6,8
問,m,an,6,8
情,c,ing,4,8
思,s,i,1,8
她,t,aa,1,8
恨,h,an,6,8
停,t,ing,4,8
碎,s,eoi,3,8
候,h,au,6,8
麗,l,ai,6,7
醉,z,eoi,3,7
止,z,i,2,7
遷,c,in,1,7
海,h,oi,2,7
退,t,eoi,3,7
他,t,aa,1,7
計,g,ai,3,7
受,s,au,6,7
淚,l,eoi,6,7
果,gw,o,2,7
外,ng,oi,6,7
久,g,au,2,7
水,s,eoi,2,7
亮,l,oeng,6,6
再,z,oi,3,6
鬥,d,au,3,6
走,z,au,2,6
來,l,ai,4,6
方,f,ong,1,6
容,j,ung,4,6
留,l,au,4,6
哀,N/A,oi,1,6
言,j,in,4,6
下,h,aa,5,6
現,j,in,6,6
侶,l,eoi,5,6
痕,h,an,4,6
追,d,eoi,1,6
步,f,au,6,5
路,l,ou,6,5
味,m,ei,6,5
想,s,oeng,2,5
虛,h,eoi,1,5
流,l,au,4,5
義,j,i,6,5
份,b,an,1,5
提,t,ai,4,5
深,s,am,1,5
睡,s,eoi,6,5
講,g,ong,2,5
分,f,an,1,5
動,d,ung,6,5
夠,g,au,3,5
試,s,i,3,5
癡,c,i,1,5
悲,b,ei,1,5
氣,h,ei,3,5
悴,s,eoi,6,5
說,s,eoi,3,4
弄,l,ung,6,4
段,d,yun,6,4
市,s,i,5,4
遠,j,yun,5,4
避,b,ei,6,4
遲,c,i,4,4
忘,m,ong,4,4
月,j,yut,6,4
應,j,ing,1,4
倦,g,yun,6,4
家,g,aa,1,4
視,s,i,6,4
休,j,au,1,4
以,j,i,5,4
傻,s,o,4,4
頭,t,au,4,4
愴,c,ong,2,4
光,gw,ong,1,4
面,m,in,6,4
靜,z,ing,6,4
潮,c,iu,4,4
累,l,eoi,4,4
裡,l,ei,5,4
由,j,au,4,4
離,l,ei,4,4
點,d,im,2,4
個,g,o,3,4
完,j,yun,4,4
概,g,oi,3,4
首,s,au,2,4
您,n,ei,5,4
眼,ng,aan,5,4
線,s,in,3,4
歌,g,o,1,3
誓,s,ai,6,3
亂,l,yun,6,3
聽,t,eng,1,3
聚,z,eoi,6,3
棄,h,ei,3,3
賞,s,oeng,2,3
淡,d,aam,6,3
柔,j,au,4,3
歸,gw,ai,1,3
火,f,o,2,3
然,j,in,4,3
等,d,ang,2,3
遍,b,in,3,3
惱,n,ou,5,3
告,g,ou,3,3
掛,gw,aa,3,3
是,s,i,6,3
怕,p,aa,3,3
向,h,oeng,3,3
同,t,ung,4,3
逅,h,au,6,3
透,t,au,3,3
任,j,am,4,3
拭,s,ik,1,3
見,g,in,3,3
哭,h,uk,1,3
罷,b,aa,6,3
戰,z,in,3,3
戀,l,yun,2,3
淒,c,ai,1,3
重,c,ung,4,3
釋,s,ik,1,3
凍,d,ung,3,3
何,h,o,4,3
樣,j,oeng,6,3
老,l,ou,5,3
晚,m,aan,5,3
湧,c,ung,1,3
長,c,oeng,4,3
茫,m,ong,4,3
痛,t,ung,3,3
扣,k,au,3,3
迷,m,ai,4,3
始,c,i,2,3
行,h,aang,4,2
衛,w,ai,6,2
死,s,ei,2,2
此,c,i,2,2
麼,m,aa,1,2
衷,c,ung,1,2
助,z,o,6,2
窗,c,oeng,1,2
洗,s,ai,2,2
親,c,an,1,2
憂,j,au,1,2
憾,h,am,6,2
引,j,an,5,2
憤,f,an,5,2
士,s,i,6,2
灑,s,aa,2,2
查,c,aa,4,2
彎,w,aan,1,2
妳,n,aai,5,2
冷,l,aang,5,2
字,z,i,6,2
信,s,an,1,2
低,d,ai,1,2
疑,j,i,4,2
載,z,oi,2,2
花,f,aa,1,2
遙,j,iu,4,2
忌,g,ei,6,2
唱,c,oeng,3,2
會,k,ui,2,2
朝,c,iu,4,2
期,g,ei,1,2
絕,z,yut,3,2
困,kw,an,3,2
究,g,au,3,2
牽,h,in,1,2
蹤,z,ung,1,2
酒,z,au,2,2
東,d,ung,1,2
浪,l,ong,4,2
逐,z,uk,6,2
逗,d,au,6,2
巴,b,aa,1,2
燒,s,iu,1,2
奔,b,an,1,2
契,k,ai,2,2
奇,g,ei,1,2
智,z,i,3,2
似,c,i,5,2
易,j,i,6,2
代,d,oi,6,2
傷,s,oeng,1,2
少,s,iu,2,2
笨,b,an,6,2
秒,m,iu,5,2
就,z,au,6,2
苦,f,u,2,2
飛,f,ei,1,2
斷,d,yun,3,2
舊,g,au,6,2
愁,s,au,4,2
續,z,uk,6,2
沉,c,am,4,2
泣,j,ap,1,2
暖,h,yun,1,2
許,h,eoi,2,2
訴,s,ou,3,2
毀,w,ai,2,2
全,c,yun,4,2
訓,f,an,3,2
世,s,ai,3,2
雅,N/A,aa,1,2
友,j,au,5,2
福,f,uk,1,2
繫,h,ai,6,2
嶇,k,eoi,1,2
貧,p,an,4,2
采,c,oi,2,2
陰,N/A,am,1,2
娟,g,yun,1,2
擁,N/A,ung,2,2
假,g,aa,2,2
標,b,iu,1,2
佩,p,ui,3,2
寥,l,iu,4,2
偷,t,au,1,2
曉,h,iu,2,2
驕,g,iu,1,2
慣,gw,aan,3,2
轉,z,yun,2,2
日,j,at,6,2
鎖,s,o,2,2
旋,s,yun,4,2
善,s,in,6,2
坐,c,o,5,2
霧,m,ou,6,2
它,t,aa,1,2
霜,s,oeng,1,2
詞,c,i,4,2
依,j,i,1,2
宮,g,ung,1,2
宿,s,au,3,2
找,z,aau,2,2
托,t,ok,3,2
厚,h,au,5,2
纏,c,in,4,2
曦,h,ei,1,2
咎,g,au,3,2
腦,n,ou,5,2
噓,h,eoi,1,2
證,z,ing,3,2
瘋,f,ung,1,1
衣,j,i,1,1
讓,j,oeng,6,1
喜,h,ei,2,1
了,l,aa,1,1
像,z,oeng,6,1
暗,N/A,am,3,1
賽,c,oi,3,1
圈,g,yun,6,1
洒,s,aa,2,1
魔,m,o,1,1
憶,j,ik,1,1
收,s,au,1,1
啦,l,aa,1,1
放,f,ong,2,1
支,z,i,1,1
鳴,m,ing,4,1
磨,m,o,4,1
摯,z,i,3,1
短,d,yun,2,1
襯,c,an,3,1
疤,b,aa,1,1
冬,d,ung,1,1
腮,s,oi,1,1
麻,m,aa,4,1
疏,s,o,1,1
疚,g,au,3,1
題,t,ai,4,1
高,g,ou,1,1
抬,t,oi,4,1
輝,f,ai,1,1
輕,h,eng,1,1
答,d,aap,3,1
騙,p,in,3,1
礙,ng,oi,6,1
呼,f,u,1,1
求,k,au,4,1
惜,s,ik,1,1
獻,h,in,3,1
翻,f,aan,1,1
遇,j,yu,6,1
蓬,f,ung,4,1
錢,c,in,4,1
倍,b,ui,3,1
救,g,au,3,1
沱,t,o,4,1
墜,z,eoi,6,1
終,z,ung,1,1
播,b,o,3,1
明,m,ing,4,1
諒,l,oeng,4,1
絲,s,i,1,1
破,p,o,3,1
漠,m,ok,6,1
控,h,ung,3,1
印,j,an,3,1
漏,l,au,6,1
惘,m,ong,5,1
掌,z,oeng,2,1
酸,s,yun,1,1
徑,g,ing,3,1
懼,g,eoi,2,1
體,t,ai,2,1
片,p,in,2,1
做,z,ou,6,1
吻,m,an,5,1
吹,c,eoi,1,1
逢,f,ung,4,1
否,f,au,2,1
宰,z,oi,2,1
美,m,ei,5,1
從,c,ung,1,1
后,h,au,6,1
已,j,i,5,1
己,g,ei,2,1
奏,c,au,3,1
奉,f,ung,6,1
燈,d,ang,1,1
晦,f,ui,3,1
晨,s,an,4,1
景,g,ing,2,1
怨,j,yun,3,1
奮,f,an,3,1
栽,z,oi,1,1
陽,j,oeng,4,1
備,b,ei,6,1
降,g,ong,3,1
限,h,aan,6,1
背,b,ui,3,1
溝,g,au,1,1
島,d,ou,2,1
底,d,ai,2,1
序,z,eoi,6,1
飾,s,ik,1,1
躲,d,o,2,1
感,g,am,2,1
束,c,uk,1,1
暮,m,ou,6,1
彈,d,aan,2,1
塵,c,an,4,1
奸,g,aan,1,1
波,b,o,1,1
郎,l,ong,4,1
罵,m,aa,6,1
暉,f,ai,1,1
哈,h,aa,1,1
間,g,aan,1,1
訪,f,ong,2,1
膚,f,u,1,1
記,g,ei,3,1
稀,h,ei,1,1
程,c,ing,4,1
象,z,oeng,6,1
種,z,ung,2,1
化,f,aa,1,1
禱,d,ou,2,1
鮮,s,in,1,1
辰,s,an,4,1
辦,b,aan,6,1
辭,c,i,4,1
淌,t,ong,2,1
恐,h,ung,2,1
繪,k,ui,2,1
繆,m,au,4,1
蕩,d,ong,6,1
里,l,ei,5,1
紅,g,ung,1,1
裙,kw,an,4,1
睬,c,oi,2,1
紙,z,i,2,1
睛,z,ing,1,1
細,s,ai,3,1
慮,l,eoi,6,1
用,j,ung,6,1
利,l,ei,6,1
桑,s,ong,1,1
切,c,ai,3,1
佈,b,ou,3,1
寸,c,yun,3,1
難,n,aan,4,1
雨,j,yu,5,1
雲,w,an,4,1
費,f,ai,3,1
持,c,i,4,1
慨,k,oi,2,1
幻,w,aan,6,1
性,s,ing,3,1
神,s,an,1,1
碰,p,ung,3,1
早,z,ou,2,1
單,d,aan,1,1
角,g,ok,3,1
夏,g,aa,2,1
露,l,au,6,1
致,z,i,3,1
也,j,aa,5,1
霞,h,aa,4,1
宙,z,au,6,1
脆,c,eoi,3,1
害,h,oi,6,1
趟,t,ong,3,1
算,s,yun,3,1
濾,l,eoi,6,1
濃,j,ung,4,1
扎,z,aap,3,1
箭,z,in,3,1
悔,f,ui,3,1
場,c,oeng,4,1
堆,d,eoi,1,1
平,p,eng,4,1
和,w,o,4,1
護,w,u,6,1
緊,g,an,2,1
緒,s,eoi,5,1
識,z,i,3,1
眉,m,ei,4,1
照,z,iu,3,1
